computer_architecture/lab2/SourceCode/test.vcd
$date
	Tue May 11 08:01:59 2021
$end
$version
	Icarus Verilog
$end
$timescale
	1ps
$end
$scope module test $end
$var reg 1 ! clk $end
$var reg 1 " rst $end
$scope module CPU1 $end
$var wire 1 ! CPU_CLK $end
$var wire 32 # CPU_Debug_DataRAM_A2 [31:0] $end
$var wire 32 $ CPU_Debug_DataRAM_WD2 [31:0] $end
$var wire 4 % CPU_Debug_DataRAM_WE2 [3:0] $end
$var wire 32 & CPU_Debug_InstRAM_A2 [31:0] $end
$var wire 32 ' CPU_Debug_InstRAM_WD2 [31:0] $end
$var wire 4 ( CPU_Debug_InstRAM_WE2 [3:0] $end
$var wire 1 " CPU_RST $end
$var wire 32 ) StoreDataM [31:0] $end
$var wire 1 * StallW $end
$var wire 1 + StallM $end
$var wire 1 , StallF $end
$var wire 1 - StallE $end
$var wire 1 . StallD $end
$var wire 5 / Rs2E [4:0] $end
$var wire 5 0 Rs2D [4:0] $end
$var wire 5 1 Rs1E [4:0] $end
$var wire 5 2 Rs1D [4:0] $end
$var wire 32 3 ResultW [31:0] $end
$var wire 32 4 ResultM [31:0] $end
$var wire 3 5 RegWriteW [2:0] $end
$var wire 3 6 RegWriteM [2:0] $end
$var wire 3 7 RegWriteE [2:0] $end
$var wire 32 8 RegWriteData [31:0] $end
$var wire 3 9 RegWriteD [2:0] $end
$var wire 2 : RegReadE [1:0] $end
$var wire 2 ; RegReadD [1:0] $end
$var wire 32 < RegOut2E [31:0] $end
$var wire 32 = RegOut2D [31:0] $end
$var wire 32 > RegOut1E [31:0] $end
$var wire 32 ? RegOut1D [31:0] $end
$var wire 5 @ RdW [4:0] $end
$var wire 5 A RdM [4:0] $end
$var wire 5 B RdE [4:0] $end
$var wire 5 C RdD [4:0] $end
$var wire 32 D PC_In [31:0] $end
$var wire 32 E PCM [31:0] $end
$var wire 32 F PCF [31:0] $end
$var wire 32 G PCE [31:0] $end
$var wire 32 H PCD [31:0] $end
$var wire 32 I Operand2 [31:0] $end
$var wire 32 J Operand1 [31:0] $end
$var wire 7 K OpCodeD [6:0] $end
$var wire 4 L MemWriteM [3:0] $end
$var wire 4 M MemWriteE [3:0] $end
$var wire 4 N MemWriteD [3:0] $end
$var wire 1 O MemToRegW $end
$var wire 1 P MemToRegM $end
$var wire 1 Q MemToRegE $end
$var wire 1 R MemToRegD $end
$var wire 2 S LoadedBytesSelect [1:0] $end
$var wire 1 T LoadNpcM $end
$var wire 1 U LoadNpcE $end
$var wire 1 V LoadNpcD $end
$var wire 1 W JalrE $end
$var wire 1 X JalrD $end
$var wire 32 Y JalNPC [31:0] $end
$var wire 1 Z JalD $end
$var wire 32 [ Instr [31:0] $end
$var wire 3 \ ImmType [2:0] $end
$var wire 32 ] ImmE [31:0] $end
$var wire 32 ^ ImmD [31:0] $end
$var wire 7 _ Funct7D [6:0] $end
$var wire 3 ` Funct3D [2:0] $end
$var wire 32 a ForwardData2 [31:0] $end
$var wire 32 b ForwardData1 [31:0] $end
$var wire 2 c Forward2E [1:0] $end
$var wire 2 d Forward1E [1:0] $end
$var wire 1 e FlushW $end
$var wire 1 f FlushM $end
$var wire 1 g FlushF $end
$var wire 1 h FlushE $end
$var wire 1 i FlushD $end
$var wire 32 j DM_RD_Ext [31:0] $end
$var wire 32 k DM_RD [31:0] $end
$var wire 32 l CPU_Debug_InstRAM_RD2 [31:0] $end
$var wire 32 m CPU_Debug_DataRAM_RD2 [31:0] $end
$var wire 3 n BranchTypeE [2:0] $end
$var wire 3 o BranchTypeD [2:0] $end
$var wire 1 p BranchE $end
$var wire 32 q BrNPC [31:0] $end
$var wire 2 r AluSrc2E [1:0] $end
$var wire 2 s AluSrc2D [1:0] $end
$var wire 1 t AluSrc1E $end
$var wire 1 u AluSrc1D $end
$var wire 32 v AluOutM [31:0] $end
$var wire 32 w AluOutE [31:0] $end
$var wire 4 x AluContrlE [3:0] $end
$var wire 4 y AluContrlD [3:0] $end
$scope module ALU1 $end
$var wire 32 z Operand1 [31:0] $end
$var wire 32 { Operand2 [31:0] $end
$var wire 4 | AluContrl [3:0] $end
$var reg 32 } AluOut [31:0] $end
$upscope $end
$scope module BranchDecisionMaking1 $end
$var wire 32 ~ Operand1 [31:0] $end
$var wire 32 !" Operand2 [31:0] $end
$var wire 3 "" BranchTypeE [2:0] $end
$var reg 1 p BranchE $end
$upscope $end
$scope module ControlUnit1 $end
$var wire 1 u AluSrc1D $end
$var wire 2 #" AluSrc2D [1:0] $end
$var wire 3 $" Fn3 [2:0] $end
$var wire 7 %" Fn7 [6:0] $end
$var wire 1 Z JalD $end
$var wire 1 X JalrD $end
$var wire 1 V LoadNpcD $end
$var wire 1 R MemToRegD $end
$var wire 7 &" Op [6:0] $end
$var reg 4 '" AluContrlD [3:0] $end
$var reg 3 (" BranchTypeD [2:0] $end
$var reg 3 )" ImmType [2:0] $end
$var reg 4 *" MemWriteD [3:0] $end
$var reg 2 +" RegReadD [1:0] $end
$var reg 3 ," RegWriteD [2:0] $end
$var reg 1 -" r_AluSrc1D $end
$var reg 2 ." r_AluSrc2D [1:0] $end
$var reg 1 /" r_JalD $end
$var reg 1 0" r_JalrD $end
$var reg 1 1" r_LoadNpcD $end
$var reg 1 2" r_MemToRegD $end
$upscope $end
$scope module DataExt1 $end
$var wire 3 3" RegWriteW [2:0] $end
$var wire 2 4" LoadedBytesSelect [1:0] $end
$var wire 32 5" IN [31:0] $end
$var reg 32 6" OUT [31:0] $end
$upscope $end
$scope module EXSegReg1 $end
$var wire 4 7" AluContrlD [3:0] $end
$var wire 1 u AluSrc1D $end
$var wire 2 8" AluSrc2D [1:0] $end
$var wire 3 9" BranchTypeD [2:0] $end
$var wire 32 :" JalNPC [31:0] $end
$var wire 1 X JalrD $end
$var wire 1 V LoadNpcD $end
$var wire 1 R MemToRegD $end
$var wire 4 ;" MemWriteD [3:0] $end
$var wire 5 <" RdD [4:0] $end
$var wire 2 =" RegReadD [1:0] $end
$var wire 3 >" RegWriteD [2:0] $end
$var wire 5 ?" Rs1D [4:0] $end
$var wire 5 @" Rs2D [4:0] $end
$var wire 1 ! clk $end
$var wire 1 A" en $end
$var wire 1 h clear $end
$var wire 32 B" RegOut2D [31:0] $end
$var wire 32 C" RegOut1D [31:0] $end
$var wire 32 D" PCD [31:0] $end
$var wire 32 E" ImmD [31:0] $end
$var reg 4 F" AluContrlE [3:0] $end
$var reg 1 t AluSrc1E $end
$var reg 2 G" AluSrc2E [1:0] $end
$var reg 32 H" BrNPC [31:0] $end
$var reg 3 I" BranchTypeE [2:0] $end
$var reg 32 J" ImmE [31:0] $end
$var reg 1 W JalrE $end
$var reg 1 U LoadNpcE $end
$var reg 1 Q MemToRegE $end
$var reg 4 K" MemWriteE [3:0] $end
$var reg 32 L" PCE [31:0] $end
$var reg 5 M" RdE [4:0] $end
$var reg 32 N" RegOut1E [31:0] $end
$var reg 32 O" RegOut2E [31:0] $end
$var reg 2 P" RegReadE [1:0] $end
$var reg 3 Q" RegWriteE [2:0] $end
$var reg 5 R" Rs1E [4:0] $end
$var reg 5 S" Rs2E [4:0] $end
$upscope $end
$scope module HarzardUnit1 $end
$var wire 1 p BranchE $end
$var wire 1 " CpuRst $end
$var wire 1 T" DCacheMiss $end
$var wire 1 U" ICacheMiss $end
$var wire 1 Z JalD $end
$var wire 1 W JalrE $end
$var wire 1 Q MemToRegE $end
$var wire 5 V" RdE [4:0] $end
$var wire 2 W" RegReadE [1:0] $end
$var wire 5 X" Rs1D [4:0] $end
$var wire 5 Y" Rs1E [4:0] $end
$var wire 5 Z" Rs2D [4:0] $end
$var wire 5 [" Rs2E [4:0] $end
$var wire 3 \" RegWriteW [2:0] $end
$var wire 3 ]" RegWriteM [2:0] $end
$var wire 5 ^" RdW [4:0] $end
$var wire 5 _" RdM [4:0] $end
$var reg 1 i FlushD $end
$var reg 1 h FlushE $end
$var reg 1 g FlushF $end
$var reg 1 f FlushM $end
$var reg 1 e FlushW $end
$var reg 2 `" Forward1E [1:0] $end
$var reg 2 a" Forward2E [1:0] $end
$var reg 1 . StallD $end
$var reg 1 - StallE $end
$var reg 1 , StallF $end
$var reg 1 + StallM $end
$var reg 1 * StallW $end
$upscope $end
$scope module IDSegReg1 $end
$var wire 32 b" A2 [31:0] $end
$var wire 32 c" WD2 [31:0] $end
$var wire 4 d" WE2 [3:0] $end
$var wire 1 i clear $end
$var wire 1 ! clk $end
$var wire 1 e" en $end
$var wire 32 f" RD_raw [31:0] $end
$var wire 32 g" RD2 [31:0] $end
$var wire 32 h" RD [31:0] $end
$var wire 32 i" PCF [31:0] $end
$var wire 32 j" A [31:0] $end
$var reg 32 k" PCD [31:0] $end
$var reg 32 l" RD_old [31:0] $end
$var reg 1 m" clear_ff $end
$var reg 1 n" stall_ff $end
$scope module InstructionRamInst $end
$var wire 30 o" addra [31:2] $end
$var wire 30 p" addrb [31:2] $end
$var wire 1 ! clk $end
$var wire 32 q" dinb [31:0] $end
$var wire 1 r" web $end
$var wire 12 s" addrbl [11:0] $end
$var wire 1 t" addrb_valid $end
$var wire 12 u" addral [11:0] $end
$var wire 1 v" addra_valid $end
$var reg 32 w" douta [31:0] $end
$var reg 32 x" doutb [31:0] $end
$upscope $end
$upscope $end
$scope module IFSegReg1 $end
$var wire 1 g clear $end
$var wire 1 ! clk $end
$var wire 1 y" en $end
$var wire 32 z" PC_In [31:0] $end
$var reg 32 {" PCF [31:0] $end
$upscope $end
$scope module ImmOperandUnit1 $end
$var wire 25 |" In [31:7] $end
$var wire 3 }" Type [2:0] $end
$var reg 32 ~" Out [31:0] $end
$upscope $end
$scope module MEMSegReg1 $end
$var wire 32 !# AluOutE [31:0] $end
$var wire 32 "# ForwardData2 [31:0] $end
$var wire 1 U LoadNpcE $end
$var wire 1 Q MemToRegE $end
$var wire 4 ## MemWriteE [3:0] $end
$var wire 32 $# PCE [31:0] $end
$var wire 5 %# RdE [4:0] $end
$var wire 3 &# RegWriteE [2:0] $end
$var wire 1 f clear $end
$var wire 1 ! clk $end
$var wire 1 '# en $end
$var reg 32 (# AluOutM [31:0] $end
$var reg 1 T LoadNpcM $end
$var reg 1 P MemToRegM $end
$var reg 4 )# MemWriteM [3:0] $end
$var reg 32 *# PCM [31:0] $end
$var reg 5 +# RdM [4:0] $end
$var reg 3 ,# RegWriteM [2:0] $end
$var reg 32 -# StoreDataM [31:0] $end
$upscope $end
$scope module NPC_Generator1 $end
$var wire 1 p BranchE $end
$var wire 32 .# BranchTarget [31:0] $end
$var wire 1 Z JalD $end
$var wire 32 /# JalTarget [31:0] $end
$var wire 1 W JalrE $end
$var wire 32 0# JalrTarget [31:0] $end
$var wire 32 1# PCF [31:0] $end
$var reg 32 2# PC_In [31:0] $end
$upscope $end
$scope module RegisterFile1 $end
$var wire 5 3# A1 [4:0] $end
$var wire 5 4# A2 [4:0] $end
$var wire 32 5# WD3 [31:0] $end
$var wire 1 6# WE3 $end
$var wire 1 ! clk $end
$var wire 1 " rst $end
$var wire 32 7# RD2 [31:0] $end
$var wire 32 8# RD1 [31:0] $end
$var wire 5 9# A3 [4:0] $end
$var integer 32 :# i [31:0] $end
$upscope $end
$scope module WBSegReg1 $end
$var wire 32 ;# A [31:0] $end
$var wire 32 <# A2 [31:0] $end
$var wire 1 P MemToRegM $end
$var wire 5 =# RdM [4:0] $end
$var wire 3 ># RegWriteM [2:0] $end
$var wire 32 ?# ResultM [31:0] $end
$var wire 32 @# WD [31:0] $end
$var wire 32 A# WD2 [31:0] $end
$var wire 4 B# WE [3:0] $end
$var wire 4 C# WE2 [3:0] $end
$var wire 1 e clear $end
$var wire 1 ! clk $end
$var wire 1 D# en $end
$var wire 32 E# RD_raw [31:0] $end
$var wire 32 F# RD2 [31:0] $end
$var wire 32 G# RD [31:0] $end
$var reg 2 H# LoadedBytesSelect [1:0] $end
$var reg 1 O MemToRegW $end
$var reg 32 I# RD_old [31:0] $end
$var reg 5 J# RdW [4:0] $end
$var reg 3 K# RegWriteW [2:0] $end
$var reg 32 L# ResultW [31:0] $end
$var reg 1 M# clear_ff $end
$var reg 1 N# stall_ff $end
$scope module DataRamInst $end
$var wire 30 O# addra [31:2] $end
$var wire 30 P# addrb [31:2] $end
$var wire 1 ! clk $end
$var wire 32 Q# dina [31:0] $end
$var wire 32 R# dinb [31:0] $end
$var wire 4 S# wea [3:0] $end
$var wire 4 T# web [3:0] $end
$var wire 12 U# addrbl [11:0] $end
$var wire 1 V# addrb_valid $end
$var wire 12 W# addral [11:0] $end
$var wire 1 X# addra_valid $end
$var reg 32 Y# douta [31:0] $end
$var reg 32 Z# doutb [31:0] $end
$upscope $end
$upscope $end
$upscope $end
$upscope $end
$enddefinitions $end
#0
$dumpvars
bx Z#
bx Y#
1X#
b0 W#
xV#
bz U#
bz T#
b0 S#
bz R#
b0 Q#
bz P#
b0 O#
xN#
xM#
b0 L#
b0 K#
b0 J#
b0 I#
b0 H#
bx G#
bx F#
bx E#
xD#
bz C#
b0 B#
bz A#
b0 @#
b0 ?#
b0 >#
b0 =#
bz <#
b0 ;#
b100000 :#
b0 9#
bx 8#
bx 7#
06#
b0 5#
bx 4#
bx 3#
b100 2#
b0 1#
b0 0#
bx /#
b0 .#
b0 -#
b0 ,#
b0 +#
b0 *#
b0 )#
b0 (#
x'#
b0 &#
b0 %#
b0 $#
b0 ##
b0 "#
b0 !#
bx ~"
b0 }"
bx |"
b0 {"
b100 z"
xy"
bx x"
bx w"
1v"
b0 u"
xt"
bz s"
xr"
bz q"
bz p"
b0 o"
xn"
xm"
b0 l"
b0 k"
b0 j"
b0 i"
bx h"
bx g"
bx f"
xe"
bz d"
bz c"
bz b"
bx a"
bx `"
b0 _"
b0 ^"
b0 ]"
b0 \"
b0 ["
bx Z"
b0 Y"
bx X"
b0 W"
b0 V"
0U"
0T"
b0 S"
b0 R"
b0 Q"
b0 P"
b0 O"
b0 N"
b0 M"
b0 L"
b0 K"
b0 J"
b0 I"
b0 H"
b0 G"
b0 F"
bx E"
b0 D"
bx C"
bx B"
xA"
bx @"
bx ?"
b0 >"
b0 ="
bx <"
b0 ;"
bx :"
b0 9"
b0 8"
b0 7"
bx 6"
bx 5"
b0 4"
b0 3"
02"
01"
00"
0/"
b0 ."
0-"
b0 ,"
b0 +"
b0 *"
b0 )"
b0 ("
b0 '"
bx &"
bx %"
bx $"
b0 #"
b0 ""
b0 !"
b0 ~
b0 }
b0 |
b0 {
b0 z
b0 y
b0 x
b0 w
b0 v
0u
0t
b0 s
b0 r
b0 q
0p
b0 o
b0 n
bx m
bx l
bx k
bx j
xi
xh
xg
xf
xe
bx d
bx c
b0 b
b0 a
bx `
bx _
bx ^
b0 ]
b0 \
bx [
0Z
bx Y
0X
0W
0V
0U
0T
b0 S
0R
0Q
0P
0O
b0 N
b0 M
b0 L
bx K
b0 J
b0 I
b0 H
b0 G
b0 F
b0 E
b100 D
bx C
b0 B
b0 A
b0 @
bx ?
b0 >
bx =
b0 <
b0 ;
b0 :
b0 9
b0 8
b0 7
b0 6
b0 5
b0 4
b0 3
bx 2
b0 1
bx 0
b0 /
x.
x-
x,
x+
x*
b0 )
bz (
bz '
bz &
bz %
bz $
bz #
1"
1!
$end
#5000
1D#
1'#
1A"
1e"
1y"
b0 c
b0 a"
b0 d
b0 `"
0e
0*
0f
0+
0h
0-
0i
0.
0g
0,
0"
#25000
0!
#45000
b0 Y
b0 :"
b0 /#
b0 ^
b0 E"
b0 ~"
bx I
bx {
bx !"
bx w
bx }
bx !#
bx 0#
bx J
bx z
bx ~
b0 =
b0 B"
b0 7#
b0 ?
b0 C"
b0 8#
b100 \
b100 )"
b100 }"
1u
1-"
b10 s
b10 #"
b10 8"
b10 ."
b1010 y
b1010 '"
b1010 7"
b11 9
b11 ,"
b11 >"
bx a
bx "#
bx b
b1010 |"
b0 _
b0 %"
b0 0
b0 @"
b0 Z"
b0 4#
b0 2
b0 ?"
b0 X"
b0 3#
b0 `
b0 $"
b1010 C
b1010 <"
b110111 K
b110111 &"
b1 u"
b0 k
b0 5"
b0 G#
b10100110111 [
b10100110111 h"
b1 o"
b1000 D
b1000 z"
b1000 2#
bx I#
0M#
0N#
b0 E#
b0 Y#
bx <
bx O"
bx >
bx N"
bx /
bx S"
bx ["
bx 1
bx R"
bx Y"
bx B
bx M"
bx V"
bx %#
bx ]
bx J"
bx q
bx H"
bx .#
bx l"
0m"
0n"
b10100110111 f"
b10100110111 w"
b100 F
b100 i"
b100 j"
b100 {"
b100 1#
1!
#65000
0!
#85000
bx ^
bx E"
bx ~"
b0 9
b0 ,"
b0 >"
b0 y
b0 '"
b0 7"
b0 s
b0 #"
b0 8"
b0 ."
0u
0-"
b0 \
b0 )"
b0 }"
b0 |"
b0 C
b0 <"
b0 K
b0 &"
b10 u"
b0 [
b0 h"
b0 I
b0 {
b0 !"
b0 a
b0 "#
b0 b
xX#
bx W#
b10 o"
b0 J
b0 z
b0 ~
b0 w
b0 }
b0 !#
b0 0#
b1100 D
b1100 z"
b1100 2#
bx O#
bx 4
bx ?#
b1000 F
b1000 i"
b1000 j"
b1000 {"
b1000 1#
b0 f"
b0 w"
bx Y
bx :"
bx /#
b100 H
b100 D"
b100 k"
b10100110111 l"
b10 r
b10 G"
1t
b1010 x
b1010 |
b1010 F"
b0 <
b0 O"
b0 >
b0 N"
b0 /
b0 S"
b0 ["
b0 1
b0 R"
b0 Y"
b1010 B
b1010 M"
b1010 V"
b1010 %#
b0 ]
b0 J"
b0 q
b0 H"
b0 .#
bx A
bx _"
bx +#
bx =#
bx )
bx -#
bx @#
bx Q#
bx v
bx (#
bx ;#
b0 I#
b11 7
b11 Q"
b11 &#
1!
#105000
0!
#125000
bx k
bx 5"
bx G#
1X#
b0 W#
b11 u"
bx 8
bx 5#
b0 O#
b0 4
b0 ?#
b0 w
b0 }
b0 !#
b0 0#
b0 I
b0 {
b0 !"
b11 o"
b10000 D
b10000 z"
b10000 2#
bx @
bx ^"
bx 9#
bx J#
bx 3
bx L#
bx S
bx 4"
bx H#
bx E#
bx Y#
b1010 A
b1010 _"
b1010 +#
b1010 =#
b0 )
b0 -#
b0 @#
b0 Q#
b0 v
b0 (#
b0 ;#
b0 r
b0 G"
0t
b0 x
b0 |
b0 F"
b0 B
b0 M"
b0 V"
b0 %#
bx ]
bx J"
bx q
bx H"
bx .#
b100 G
b100 L"
b100 $#
b0 l"
b1000 H
b1000 D"
b1000 k"
b1100 F
b1100 i"
b1100 j"
b1100 {"
b1100 1#
b0 7
b0 Q"
b0 &#
1!
#145000
0!
#165000
b100 u"
b0 k
b0 5"
b0 G#
b100 o"
b10100 D
b10100 z"
b10100 2#
b0 8
b0 5#
b10000 F
b10000 i"
b10000 j"
b10000 {"
b10000 1#
b1100 H
b1100 D"
b1100 k"
b1000 G
b1000 L"
b1000 $#
b100 E
b100 *#
b0 A
b0 _"
b0 +#
b0 =#
b0 E#
b0 Y#
b1010 @
b1010 ^"
b1010 9#
b1010 J#
b0 3
b0 L#
b0 S
b0 4"
b0 H#
bx I#
1!
#185000
0!
#205000
b101 u"
b101 o"
b11000 D
b11000 z"
b11000 2#
b0 I#
b0 @
b0 ^"
b0 9#
b0 J#
b1000 E
b1000 *#
b1100 G
b1100 L"
b1100 $#
b10000 H
b10000 D"
b10000 k"
b10100 F
b10100 i"
b10100 j"
b10100 {"
b10100 1#
1!
#225000
0!
#245000
b10000010100 Y
b10000010100 :"
b10000010100 /#
b10000000000 ^
b10000000000 E"
b10000000000 ~"
b1 \
b1 )"
b1 }"
1u
1-"
b10 s
b10 #"
b10 8"
b10 ."
b11 9
b11 ,"
b11 >"
b100000000000101000000010 |"
b100000 _
b100000 %"
b1010 2
b1010 ?"
b1010 X"
b1010 3#
b10 C
b10 <"
b10011 K
b10011 &"
b110 u"
b1000000000001010000000100010011 [
b1000000000001010000000100010011 h"
b110 o"
b11100 D
b11100 z"
b11100 2#
b11000 F
b11000 i"
b11000 j"
b11000 {"
b11000 1#
b1000000000001010000000100010011 f"
b1000000000001010000000100010011 w"
b10100 H
b10100 D"
b10100 k"
b10000 G
b10000 L"
b10000 $#
b1100 E
b1100 *#
1!
#265000
0!
#285000
bx ^
bx E"
bx ~"
b0 9
b0 ,"
b0 >"
b0 s
b0 #"
b0 8"
b0 ."
0u
0-"
b0 \
b0 )"
b0 }"
b0 |"
b0 _
b0 %"
b0 2
b0 ?"
b0 X"
b0 3#
b0 C
b0 <"
b0 K
b0 &"
b10000000000 I
b10000000000 {
b10000000000 !"
b10100 w
b10100 }
b10100 !#
b10100 0#
b0 [
b0 h"
b111 u"
b10100 J
b10100 z
b10100 ~
b111 o"
b100000 D
b100000 z"
b100000 2#
b11 6
b11 ]"
b11 ,#
b11 >#
b10000 E
b10000 *#
b10 r
b10 G"
1t
b1010 1
b1010 R"
b1010 Y"
b10 B
b10 M"
b10 V"
b10 %#
b10000000000 ]
b10000000000 J"
b10000010100 q
b10000010100 H"
b10000010100 .#
b10100 G
b10100 L"
b10100 $#
b1000000000001010000000100010011 l"
bx Y
bx :"
bx /#
b11000 H
b11000 D"
b11000 k"
b0 f"
b0 w"
b11100 F
b11100 i"
b11100 j"
b11100 {"
b11100 1#
b11 7
b11 Q"
b11 &#
1!
#305000
0!
#325000
b1000 u"
b0 w
b0 }
b0 !#
b0 0#
b101 W#
b1000 o"
b0 I
b0 {
b0 !"
b100100 D
b100100 z"
b100100 2#
b0 J
b0 z
b0 ~
b101 O#
b10100 4
b10100 ?#
b0 j
b0 6"
b100000 F
b100000 i"
b100000 j"
b100000 {"
b100000 1#
b11100 H
b11100 D"
b11100 k"
b0 l"
b0 r
b0 G"
0t
b0 1
b0 R"
b0 Y"
b0 B
b0 M"
b0 V"
b0 %#
bx ]
bx J"
bx q
bx H"
bx .#
b11000 G
b11000 L"
b11000 $#
b10100 E
b10100 *#
b10 A
b10 _"
b10 +#
b10 =#
b10100 v
b10100 (#
b10100 ;#
16#
b11 5
b11 3"
b11 \"
b11 K#
b0 7
b0 Q"
b0 &#
1!
#345000
0!
#365000
b11001010010000000100011 j
b11001010010000000100011 6"
b11001010010000000100011 k
b11001010010000000100011 5"
b11001010010000000100011 G#
b0 W#
b1001 u"
b10100 8
b10100 5#
b0 O#
b0 4
b0 ?#
b1001 o"
b101000 D
b101000 z"
b101000 2#
b10 @
b10 ^"
b10 9#
b10 J#
b10100 3
b10100 L#
b11001010010000000100011 E#
b11001010010000000100011 Y#
b0 6
b0 ]"
b0 ,#
b0 >#
b11000 E
b11000 *#
b0 A
b0 _"
b0 +#
b0 =#
b0 v
b0 (#
b0 ;#
b11100 G
b11100 L"
b11100 $#
b100000 H
b100000 D"
b100000 k"
b100100 F
b100100 i"
b100100 j"
b100100 {"
b100100 1#
1!
#385000
0!
#405000
b1010 u"
b0 k
b0 5"
b0 G#
b1010 o"
b101100 D
b101100 z"
b101100 2#
b0 8
b0 5#
b101000 F
b101000 i"
b101000 j"
b101000 {"
b101000 1#
b100100 H
b100100 D"
b100100 k"
b100000 G
b100000 L"
b100000 $#
b11100 E
b11100 *#
b0 E#
b0 Y#
b0 @
b0 ^"
b0 9#
b0 J#
b0 3
b0 L#
06#
b0 5
b0 3"
b0 \"
b0 K#
b11001010010000000100011 I#
1!
#425000
0!
#445000
b110000 Y
b110000 :"
b110000 /#
b1000 ^
b1000 E"
b1000 ~"
b1 \
b1 )"
b1 }"
1u
1-"
b10 s
b10 #"
b10 8"
b10 ."
b11 9
b11 ,"
b11 >"
b10000000011000101 |"
b1000 0
b1000 @"
b1000 Z"
b1000 4#
b110 `
b110 $"
b101 C
b101 <"
b10011 K
b10011 &"
b100000000110001010010011 [
b100000000110001010010011 h"
b1011 u"
b1011 o"
b110000 D
b110000 z"
b110000 2#
b0 I#
b100000 E
b100000 *#
b100100 G
b100100 L"
b100100 $#
b101000 H
b101000 D"
b101000 k"
b100000000110001010010011 f"
b100000000110001010010011 w"
b101100 F
b101100 i"
b101100 j"
b101100 {"
b101100 1#
1!
#465000
0!
#485000
bx ^
bx E"
bx ~"
b0 9
b0 ,"
b0 >"
b0 s
b0 #"
b0 8"
b0 ."
0u
0-"
b0 \
b0 )"
b0 }"
b0 |"
b0 0
b0 @"
b0 Z"
b0 4#
b0 `
b0 $"
b0 C
b0 <"
b0 K
b0 &"
b1100 u"
b0 [
b0 h"
b1000 I
b1000 {
b1000 !"
b10100000000000 w
b10100000000000 }
b10100000000000 !#
b10100000000000 0#
b1100 o"
b101000 J
b101000 z
b101000 ~
b110100 D
b110100 z"
b110100 2#
b110000 F
b110000 i"
b110000 j"
b110000 {"
b110000 1#
b0 f"
b0 w"
bx Y
bx :"
bx /#
b101100 H
b101100 D"
b101100 k"
b100000000110001010010011 l"
b10 r
b10 G"
1t
b1000 /
b1000 S"
b1000 ["
b101 B
b101 M"
b101 V"
b101 %#
b1000 ]
b1000 J"
b110000 q
b110000 H"
b110000 .#
b101000 G
b101000 L"
b101000 $#
b100100 E
b100100 *#
b11 7
b11 Q"
b11 &#
1!
#505000
0!
#525000
b101000000000 W#
b0 w
b0 }
b0 !#
b0 0#
b1101 u"
b101000000000 O#
b10100000000000 4
b10100000000000 ?#
b0 I
b0 {
b0 !"
b0 J
b0 z
b0 ~
b1101 o"
b111000 D
b111000 z"
b111000 2#
b101000 E
b101000 *#
b101 A
b101 _"
b101 +#
b101 =#
b10100000000000 v
b10100000000000 (#
b10100000000000 ;#
b0 r
b0 G"
0t
b0 /
b0 S"
b0 ["
b0 B
b0 M"
b0 V"
b0 %#
bx ]
bx J"
bx q
bx H"
bx .#
b101100 G
b101100 L"
b101100 $#
b0 l"
b110000 H
b110000 D"
b110000 k"
b110100 F
b110100 i"
b110100 j"
b110100 {"
b110100 1#
b0 7
b0 Q"
b0 &#
1!
#545000
0!
#565000
b1110 u"
b0 W#
bx k
bx 5"
bx G#
b1110 o"
b111100 D
b111100 z"
b111100 2#
b0 O#
b0 4
b0 ?#
b10100000000000 8
b10100000000000 5#
b111000 F
b111000 i"
b111000 j"
b111000 {"
b111000 1#
b110100 H
b110100 D"
b110100 k"
b110000 G
b110000 L"
b110000 $#
b101100 E
b101100 *#
b0 A
b0 _"
b0 +#
b0 =#
b0 v
b0 (#
b0 ;#
bx E#
bx Y#
b101 @
b101 ^"
b101 9#
b101 J#
b10100000000000 3
b10100000000000 L#
1!
#585000
0!
#605000
b0 k
b0 5"
b0 G#
b1111 u"
b0 8
b0 5#
b1111 o"
b1000000 D
b1000000 z"
b1000000 2#
bx I#
b0 @
b0 ^"
b0 9#
b0 J#
b0 3
b0 L#
b0 E#
b0 Y#
b110000 E
b110000 *#
b110100 G
b110100 L"
b110100 $#
b111000 H
b111000 D"
b111000 k"
b111100 F
b111100 i"
b111100 j"
b111100 {"
b111100 1#
1!
#625000
0!
#645000
b1001000 Y
b1001000 :"
b1001000 /#
b1100 ^
b1100 E"
b1100 ~"
b101 \
b101 )"
b101 }"
1V
11"
b11 9
b11 ,"
b11 >"
1X
10"
b11000000000000001 |"
b1100 0
b1100 @"
b1100 Z"
b1100 4#
b1 C
b1 <"
b1101111 K
b1101111 &"
b10000 u"
b110000000000000011101111 [
b110000000000000011101111 h"
b10000 o"
b1000100 D
b1000100 z"
b1000100 2#
b1000000 F
b1000000 i"
b1000000 j"
b1000000 {"
b1000000 1#
b110000000000000011101111 f"
b110000000000000011101111 w"
b111100 H
b111100 D"
b111100 k"
b111000 G
b111000 L"
b111000 $#
b110100 E
b110100 *#
b0 I#
1!
#665000
0!
#685000
bx ^
bx E"
bx ~"
0X
00"
b0 9
b0 ,"
b0 >"
0V
01"
b0 \
b0 )"
b0 }"
b0 |"
b0 0
b0 @"
b0 Z"
b0 4#
b0 C
b0 <"
b0 K
b0 &"
b0 [
b0 h"
b10001 u"
b10001 o"
b0 D
b0 z"
b0 2#
b11 6
b11 ]"
b11 ,#
b11 >#
b111000 E
b111000 *#
1U
1W
b1100 /
b1100 S"
b1100 ["
b1 B
b1 M"
b1 V"
b1 %#
b1100 ]
b1100 J"
b1001000 q
b1001000 H"
b1001000 .#
b111100 G
b111100 L"
b111100 $#
b110000000000000011101111 l"
bx Y
bx :"
bx /#
b1000000 H
b1000000 D"
b1000000 k"
b0 f"
b0 w"
b1000100 F
b1000100 i"
b1000100 j"
b1000100 {"
b1000100 1#
b11 7
b11 Q"
b11 &#
1!
#705000
0!
#725000
b0 u"
b0 o"
b100 D
b100 z"
b100 2#
b1000000 4
b1000000 ?#
b0 j
b0 6"
b0 F
b0 i"
b0 j"
b0 {"
b0 1#
b1000100 H
b1000100 D"
b1000100 k"
b0 l"
0U
0W
b0 /
b0 S"
b0 ["
b0 B
b0 M"
b0 V"
b0 %#
bx ]
bx J"
bx q
bx H"
bx .#
b1000000 G
b1000000 L"
b1000000 $#
1T
b111100 E
b111100 *#
b1 A
b1 _"
b1 +#
b1 =#
16#
b11 5
b11 3"
b11 \"
b11 K#
b0 7
b0 Q"
b0 &#
1!
#745000
0!
